Freiluftkino Rehberge,ANNE CLARK - I'LL WALK OUT INTO TOMORROW ENGL.M.DT.UT,DI 10.07. 21:45,http://freiluftkino-rehberge.de/
Pompeji - Freiluftkino Ostkreuz,ISLE OF DOGS - ATARIS REISE OMDU,10.07.2018 21:45,https://www.kinoheld.de/kino-berlin/freiluftkino-pompeji-open-air-am-ostkreuz-berlin/shows/movies?mode=widget&cid=MjYwOTQzNg&layout=movies&rb=0&design=kinos-am-ostkreuz
Freiluftkino Insel im Cassiopeia,Wes Anderson's: Isle of Dogs - Ataris Reise (OmU),16. JUL,http://www.freiluftkino-insel.de/html/program
Freiluftkino Friedrichshain,THE KILLING OF A SACRED DEER,DI 10.07. 21:45,http://www.freiluftkino-berlin.de/eine_woche.php
Freiluftkino Kreuzberg,OH BOY,DI 10.07. 21:45,http://www.freiluftkino-kreuzberg.de/
Freiluftkino Hasenheide,Shape of Water - Das Flüstern des Wassers,10.07.2018 21:45,http://freiluftkino-hasenheide.de/2018/index.php/programm
